{
  "AWSTemplateFormatVersion" : "2010-09-09",

  "Description" : "CloufFormation Template for deploying MYBB Application in AWS with highly secure and scalable configuration with monitoring",

  "Parameters" : {

    "KeyName" : {
      "Default": "mybbcrossover",
      "Description" : "Existing key pair name for SSH access to the EC2 instance",
      "Type" : "AWS::EC2::KeyPair::KeyName",
      "ConstraintDescription" : "must be the name of an existing EC2 KeyPair."
    },

    "AdministratorEmail": {
      "Default": "mybbadmin@yourdomain.com",
      "Description": "Notification Email Address for autoscaling actions etc.",
      "Type": "String",
      "AllowedPattern": "([a-zA-Z0-9_\\-\\.]+)@((\\[[0-9]{1,3}\\.[0-9]{1,3}\\.[0-9]{1,3}\\.)|(([a-zA-Z0-9\\-]+\\.)+))([a-zA-Z]{2,4}|[0-9]{1,3})(\\]?)",
      "ConstraintDescription": "Must be a valid email address."
    },

    "SSHLocation" : {
      "Description" : "Lockdown SSH access for security. (default configuration is to allow SSH from anywhere)",
      "Type" : "String",
      "MinLength": "9",
      "MaxLength": "18",
      "Default" : "0.0.0.0/0",
      "AllowedPattern" : "(\\d{1,3})\\.(\\d{1,3})\\.(\\d{1,3})\\.(\\d{1,3})/(\\d{1,2})",
      "ConstraintDescription" : "must be a valid CIDR range of the form x.x.x.x/x."
    },

    "WebServerInstanceType" : {
      "Description" : "WebServer Server EC2 instance type",
      "Type" : "String",
      "Default" : "t2.micro",
      "AllowedValues" : [ "t1.micro", "t2.nano", "t2.micro", "t2.small", "t2.medium", "t2.large", "m1.small", "m1.medium", "m1.large", "m1.xlarge", "m2.xlarge", "m2.2xlarge", "m2.4xlarge", "m3.medium", "m3.large", "m3.xlarge", "m3.2xlarge", "m4.large", "m4.xlarge", "m4.2xlarge", "m4.4xlarge", "m4.10xlarge", "c1.medium", "c1.xlarge", "c3.large", "c3.xlarge", "c3.2xlarge", "c3.4xlarge", "c3.8xlarge", "c4.large", "c4.xlarge", "c4.2xlarge", "c4.4xlarge", "c4.8xlarge", "g2.2xlarge", "g2.8xlarge", "r3.large", "r3.xlarge", "r3.2xlarge", "r3.4xlarge", "r3.8xlarge", "i2.xlarge", "i2.2xlarge", "i2.4xlarge", "i2.8xlarge", "d2.xlarge", "d2.2xlarge", "d2.4xlarge", "d2.8xlarge", "hi1.4xlarge", "hs1.8xlarge", "cr1.8xlarge", "cc2.8xlarge", "cg1.4xlarge"],
      "ConstraintDescription" : "must be a valid EC2 instance type."
    },

    "WebServerCount" : {
      "Description" : "Number of EC2 instances to launch for the WebServer server",
      "Type" : "Number",
      "Default" : "1"
    },

    "DBName": {
      "Default": "MyBBDB",
      "Description" : "MyBB Database Name",
      "Type": "String",
      "MinLength": "1",
      "MaxLength": "64",
      "AllowedPattern" : "[a-zA-Z][a-zA-Z0-9]*",
      "ConstraintDescription" : "must begin with a letter and contain only alphanumeric characters."
    },

    "DBUser": {
      "Default": "mybbdbusr",
      "Description" : "MyBB Database admin user",
      "Type": "String",
      "MinLength": "1",
      "MaxLength": "16",
      "AllowedPattern" : "[a-zA-Z][a-zA-Z0-9]*",
      "ConstraintDescription" : "must begin with a letter and contain only alphanumeric characters."
    },

    "DBPassword": {
      "NoEcho": "true",
      "Description" : "MyBB Database admin password",
      "Type": "String",
      "MinLength": "1",
      "MaxLength": "41",
      "AllowedPattern" : "[a-zA-Z0-9]+",
      "ConstraintDescription" : "must contain only alphanumeric characters."
    },

    "DBAllocatedStorage": {
      "Default": "5",
      "Description" : "RDS Database disk size",
      "Type": "Number",
      "MinValue": "5",
      "MaxValue": "1024",
      "ConstraintDescription" : "must be between 5 and 1024Gb."
    },

    "DBInstanceClass": {
      "Description" : "RDS DB Instance type",
      "Type": "String",
      "Default": "db.t1.micro",
      "AllowedValues" : [ "db.t1.micro", "db.m1.small", "db.m1.medium", "db.m1.large", "db.m1.xlarge", "db.m2.xlarge", "db.m2.2xlarge", "db.m2.4xlarge", "db.m3.medium", "db.m3.large", "db.m3.xlarge", "db.m3.2xlarge", "db.m4.large", "db.m4.xlarge", "db.m4.2xlarge", "db.m4.4xlarge", "db.m4.10xlarge", "db.r3.large", "db.r3.xlarge", "db.r3.2xlarge", "db.r3.4xlarge", "db.r3.8xlarge", "db.m2.xlarge", "db.m2.2xlarge", "db.m2.4xlarge", "db.cr1.8xlarge", "db.t2.micro", "db.t2.small", "db.t2.medium", "db.t2.large"],
      "ConstraintDescription" : "must select a valid database instance type."
    },

    "DBPort": {
      "Type": "Number",
      "Description": "Database port number",
      "MinValue": "1024",
      "MaxValue": "65536",
      "Default": 3306,
      "ConstraintDescription": "Must be a valid DB port number!"
    },

    "MultiAZ" : {
      "Description" : "RDS Multi AZ",
      "Type" : "String",
      "Default" : "true",
      "AllowedValues" : [ "true", "false" ],
      "ConstraintDescription" : "must be true or false."
    }
  },

  "Mappings" : {
    "SubnetConfig" : {
      "VPC"     : { "CIDR" : "172.31.0.0/16" },
      "PublicA"  : { "CIDR" : "172.31.1.0/24" },
      "PublicB"  : { "CIDR" : "172.31.2.0/24" },
      "PrivateA"  : { "CIDR" : "172.31.3.0/24" },
      "PrivateB"  : { "CIDR" : "172.31.4.0/24" }      
    },

    "AWSInstanceType2Arch" : {
      "t1.micro"    : { "Arch" : "PV64"   },
      "t2.nano"     : { "Arch" : "HVM64"  },
      "t2.micro"    : { "Arch" : "HVM64"  },
      "t2.small"    : { "Arch" : "HVM64"  },
      "t2.medium"   : { "Arch" : "HVM64"  },
      "t2.large"    : { "Arch" : "HVM64"  },
      "m1.small"    : { "Arch" : "PV64"   },
      "m1.medium"   : { "Arch" : "PV64"   },
      "m1.large"    : { "Arch" : "PV64"   },
      "m1.xlarge"   : { "Arch" : "PV64"   },
      "m2.xlarge"   : { "Arch" : "PV64"   },
      "m2.2xlarge"  : { "Arch" : "PV64"   },
      "m2.4xlarge"  : { "Arch" : "PV64"   },
      "m3.medium"   : { "Arch" : "HVM64"  },
      "m3.large"    : { "Arch" : "HVM64"  },
      "m3.xlarge"   : { "Arch" : "HVM64"  },
      "m3.2xlarge"  : { "Arch" : "HVM64"  },
      "m4.large"    : { "Arch" : "HVM64"  },
      "m4.xlarge"   : { "Arch" : "HVM64"  },
      "m4.2xlarge"  : { "Arch" : "HVM64"  },
      "m4.4xlarge"  : { "Arch" : "HVM64"  },
      "m4.10xlarge" : { "Arch" : "HVM64"  },
      "c1.medium"   : { "Arch" : "PV64"   },
      "c1.xlarge"   : { "Arch" : "PV64"   },
      "c3.large"    : { "Arch" : "HVM64"  },
      "c3.xlarge"   : { "Arch" : "HVM64"  },
      "c3.2xlarge"  : { "Arch" : "HVM64"  },
      "c3.4xlarge"  : { "Arch" : "HVM64"  },
      "c3.8xlarge"  : { "Arch" : "HVM64"  },
      "c4.large"    : { "Arch" : "HVM64"  },
      "c4.xlarge"   : { "Arch" : "HVM64"  },
      "c4.2xlarge"  : { "Arch" : "HVM64"  },
      "c4.4xlarge"  : { "Arch" : "HVM64"  },
      "c4.8xlarge"  : { "Arch" : "HVM64"  },
      "g2.2xlarge"  : { "Arch" : "HVMG2"  },
      "g2.8xlarge"  : { "Arch" : "HVMG2"  },
      "r3.large"    : { "Arch" : "HVM64"  },
      "r3.xlarge"   : { "Arch" : "HVM64"  },
      "r3.2xlarge"  : { "Arch" : "HVM64"  },
      "r3.4xlarge"  : { "Arch" : "HVM64"  },
      "r3.8xlarge"  : { "Arch" : "HVM64"  },
      "i2.xlarge"   : { "Arch" : "HVM64"  },
      "i2.2xlarge"  : { "Arch" : "HVM64"  },
      "i2.4xlarge"  : { "Arch" : "HVM64"  },
      "i2.8xlarge"  : { "Arch" : "HVM64"  },
      "d2.xlarge"   : { "Arch" : "HVM64"  },
      "d2.2xlarge"  : { "Arch" : "HVM64"  },
      "d2.4xlarge"  : { "Arch" : "HVM64"  },
      "d2.8xlarge"  : { "Arch" : "HVM64"  },
      "hi1.4xlarge" : { "Arch" : "HVM64"  },
      "hs1.8xlarge" : { "Arch" : "HVM64"  },
      "cr1.8xlarge" : { "Arch" : "HVM64"  },
      "cc2.8xlarge" : { "Arch" : "HVM64"  }
    },

    "AWSInstanceType2NATArch" : {
      "t1.micro"    : { "Arch" : "NATPV64"   },
      "t2.nano"     : { "Arch" : "NATHVM64"  },
      "t2.micro"    : { "Arch" : "NATHVM64"  },
      "t2.small"    : { "Arch" : "NATHVM64"  },
      "t2.medium"   : { "Arch" : "NATHVM64"  },
      "t2.large"    : { "Arch" : "NATHVM64"  },
      "m1.small"    : { "Arch" : "NATPV64"   },
      "m1.medium"   : { "Arch" : "NATPV64"   },
      "m1.large"    : { "Arch" : "NATPV64"   },
      "m1.xlarge"   : { "Arch" : "NATPV64"   },
      "m2.xlarge"   : { "Arch" : "NATPV64"   },
      "m2.2xlarge"  : { "Arch" : "NATPV64"   },
      "m2.4xlarge"  : { "Arch" : "NATPV64"   },
      "m3.medium"   : { "Arch" : "NATHVM64"  },
      "m3.large"    : { "Arch" : "NATHVM64"  },
      "m3.xlarge"   : { "Arch" : "NATHVM64"  },
      "m3.2xlarge"  : { "Arch" : "NATHVM64"  },
      "m4.large"    : { "Arch" : "NATHVM64"  },
      "m4.xlarge"   : { "Arch" : "NATHVM64"  },
      "m4.2xlarge"  : { "Arch" : "NATHVM64"  },
      "m4.4xlarge"  : { "Arch" : "NATHVM64"  },
      "m4.10xlarge" : { "Arch" : "NATHVM64"  },
      "c1.medium"   : { "Arch" : "NATPV64"   },
      "c1.xlarge"   : { "Arch" : "NATPV64"   },
      "c3.large"    : { "Arch" : "NATHVM64"  },
      "c3.xlarge"   : { "Arch" : "NATHVM64"  },
      "c3.2xlarge"  : { "Arch" : "NATHVM64"  },
      "c3.4xlarge"  : { "Arch" : "NATHVM64"  },
      "c3.8xlarge"  : { "Arch" : "NATHVM64"  },
      "c4.large"    : { "Arch" : "NATHVM64"  },
      "c4.xlarge"   : { "Arch" : "NATHVM64"  },
      "c4.2xlarge"  : { "Arch" : "NATHVM64"  },
      "c4.4xlarge"  : { "Arch" : "NATHVM64"  },
      "c4.8xlarge"  : { "Arch" : "NATHVM64"  },
      "g2.2xlarge"  : { "Arch" : "NATHVMG2"  },
      "g2.8xlarge"  : { "Arch" : "NATHVMG2"  },
      "r3.large"    : { "Arch" : "NATHVM64"  },
      "r3.xlarge"   : { "Arch" : "NATHVM64"  },
      "r3.2xlarge"  : { "Arch" : "NATHVM64"  },
      "r3.4xlarge"  : { "Arch" : "NATHVM64"  },
      "r3.8xlarge"  : { "Arch" : "NATHVM64"  },
      "i2.xlarge"   : { "Arch" : "NATHVM64"  },
      "i2.2xlarge"  : { "Arch" : "NATHVM64"  },
      "i2.4xlarge"  : { "Arch" : "NATHVM64"  },
      "i2.8xlarge"  : { "Arch" : "NATHVM64"  },
      "d2.xlarge"   : { "Arch" : "NATHVM64"  },
      "d2.2xlarge"  : { "Arch" : "NATHVM64"  },
      "d2.4xlarge"  : { "Arch" : "NATHVM64"  },
      "d2.8xlarge"  : { "Arch" : "NATHVM64"  },
      "hi1.4xlarge" : { "Arch" : "NATHVM64"  },
      "hs1.8xlarge" : { "Arch" : "NATHVM64"  },
      "cr1.8xlarge" : { "Arch" : "NATHVM64"  },
      "cc2.8xlarge" : { "Arch" : "NATHVM64"  }
    },

    "AWSRegionArch2AMI" : {
      "us-east-1"        : {"PV64" : "ami-2a69aa47", "HVM64" : "ami-6869aa05", "HVMG2" : "ami-648d9973"},
      "us-west-2"        : {"PV64" : "ami-7f77b31f", "HVM64" : "ami-7172b611", "HVMG2" : "ami-09cd7a69"},
      "us-west-1"        : {"PV64" : "ami-a2490dc2", "HVM64" : "ami-31490d51", "HVMG2" : "ami-1e5f0e7e"},
      "eu-west-1"        : {"PV64" : "ami-4cdd453f", "HVM64" : "ami-f9dd458a", "HVMG2" : "ami-b4694ac7"},
      "eu-west-2"        : {"PV64" : "NOT_SUPPORTED", "HVM64" : "ami-886369ec", "HVMG2" : "NOT_SUPPORTED"},
      "eu-central-1"     : {"PV64" : "ami-6527cf0a", "HVM64" : "ami-ea26ce85", "HVMG2" : "ami-de5191b1"},
      "ap-northeast-1"   : {"PV64" : "ami-3e42b65f", "HVM64" : "ami-374db956", "HVMG2" : "ami-df9ff4b8"},
      "ap-northeast-2"   : {"PV64" : "NOT_SUPPORTED", "HVM64" : "ami-2b408b45", "HVMG2" : "NOT_SUPPORTED"},
      "ap-southeast-1"   : {"PV64" : "ami-df9e4cbc", "HVM64" : "ami-a59b49c6", "HVMG2" : "ami-8d8d23ee"},
      "ap-southeast-2"   : {"PV64" : "ami-63351d00", "HVM64" : "ami-dc361ebf", "HVMG2" : "ami-cbaf94a8"},
      "ap-south-1"       : {"PV64" : "NOT_SUPPORTED", "HVM64" : "ami-ffbdd790", "HVMG2" : "ami-decdbab1"},
      "us-east-2"        : {"PV64" : "NOT_SUPPORTED", "HVM64" : "ami-f6035893", "HVMG2" : "NOT_SUPPORTED"},
      "ca-central-1"     : {"PV64" : "NOT_SUPPORTED", "HVM64" : "ami-730ebd17", "HVMG2" : "NOT_SUPPORTED"},
      "sa-east-1"        : {"PV64" : "ami-1ad34676", "HVM64" : "ami-6dd04501", "HVMG2" : "NOT_SUPPORTED"},
      "cn-north-1"       : {"PV64" : "ami-77559f1a", "HVM64" : "ami-8e6aa0e3", "HVMG2" : "NOT_SUPPORTED"}
    }

  },

  "Resources" : {

    "VPC" : {
      "Type" : "AWS::EC2::VPC",
      "Properties" : {
        "CidrBlock" : { "Fn::FindInMap" : [ "SubnetConfig", "VPC", "CIDR" ]},
        "EnableDnsSupport" : "true",
        "EnableDnsHostnames" : "true",
        "Tags" : [
          { "Key" : "Application", "Value" : { "Ref" : "AWS::StackId" } },
          { "Key" : "Network", "Value" : "Public" }
        ]
      }
    },

    "PublicSubnetA" : {
      "Type" : "AWS::EC2::Subnet",
      "Properties" : {
        "AvailabilityZone" : { "Fn::Select" : [ "2", { "Fn::GetAZs" : "" } ] },
        "VpcId" : { "Ref" : "VPC" },
        "CidrBlock" : { "Fn::FindInMap" : [ "SubnetConfig", "PublicA", "CIDR" ]},
        "Tags" : [
          { "Key" : "Application", "Value" : { "Ref" : "AWS::StackId" } },
          { "Key" : "Network", "Value" : "Public" }
        ]
      }
    },

    "PublicSubnetB" : {
      "Type" : "AWS::EC2::Subnet",
      "Properties" : {
        "AvailabilityZone" : { "Fn::Select" : [ "3", { "Fn::GetAZs" : "" } ] },
        "VpcId" : { "Ref" : "VPC" },
        "CidrBlock" : { "Fn::FindInMap" : [ "SubnetConfig", "PublicB", "CIDR" ]},
        "Tags" : [
          { "Key" : "Application", "Value" : { "Ref" : "AWS::StackId" } },
          { "Key" : "Network", "Value" : "Public" }
        ]
      }
    },

    "InternetGateway" : {
      "Type" : "AWS::EC2::InternetGateway",
      "Properties" : {
        "Tags" : [
          { "Key" : "Application", "Value" : { "Ref" : "AWS::StackId" } },
          { "Key" : "Network", "Value" : "Public" }
        ]
      }
    },

    "GatewayToInternet" : {
       "Type" : "AWS::EC2::VPCGatewayAttachment",
       "Properties" : {
         "VpcId" : { "Ref" : "VPC" },
         "InternetGatewayId" : { "Ref" : "InternetGateway" }
       }
    },

    "PublicRouteTable" : {
      "Type" : "AWS::EC2::RouteTable",
      "Properties" : {
        "VpcId" : { "Ref" : "VPC" },
        "Tags" : [
          { "Key" : "Application", "Value" : { "Ref" : "AWS::StackId" } },
          { "Key" : "Network", "Value" : "Public" }
        ]
      }
    },

    "PublicRoute" : {
      "Type" : "AWS::EC2::Route",
      "DependsOn" : "GatewayToInternet",
      "Properties" : {
        "RouteTableId" : { "Ref" : "PublicRouteTable" },
        "DestinationCidrBlock" : "0.0.0.0/0",
        "GatewayId" : { "Ref" : "InternetGateway" }
      }
    },

    "PublicSubnetRouteTableAssociationA" : {
      "Type" : "AWS::EC2::SubnetRouteTableAssociation",
      "Properties" : {
        "SubnetId" : { "Ref" : "PublicSubnetA" },
        "RouteTableId" : { "Ref" : "PublicRouteTable" }
      }
    },

    "PublicSubnetRouteTableAssociationB" : {
      "Type" : "AWS::EC2::SubnetRouteTableAssociation",
      "Properties" : {
        "SubnetId" : { "Ref" : "PublicSubnetB" },
        "RouteTableId" : { "Ref" : "PublicRouteTable" }
      }
    },

    "PublicNetworkAcl" : {
      "Type" : "AWS::EC2::NetworkAcl",
      "Properties" : {
        "VpcId" : { "Ref" : "VPC" },
        "Tags" : [
          { "Key" : "Application", "Value" : { "Ref" : "AWS::StackId" } },
          { "Key" : "Network", "Value" : "Public" }
        ]
      }
    },

    "InboundHTTPPublicNetworkAclEntry" : {
      "Type" : "AWS::EC2::NetworkAclEntry",
      "Properties" : {
        "NetworkAclId" : { "Ref" : "PublicNetworkAcl" },
        "RuleNumber" : "100",
        "Protocol" : "6",
        "RuleAction" : "allow",
        "Egress" : "false",
        "CidrBlock" : "0.0.0.0/0",
        "PortRange" : { "From" : "80", "To" : "80" }
      }
    },

    "InboundDynamicPortPublicNetworkAclEntry" : {
      "Type" : "AWS::EC2::NetworkAclEntry",
      "Properties" : {
        "NetworkAclId" : { "Ref" : "PublicNetworkAcl" },
        "RuleNumber" : "101",
        "Protocol" : "6",
        "RuleAction" : "allow",
        "Egress" : "false",
        "CidrBlock" : "0.0.0.0/0",
        "PortRange" : { "From" : "1024", "To" : "65535" }
      }
    },

    "InboundSSHPublicNetworkAclEntry" : {
      "Type" : "AWS::EC2::NetworkAclEntry",
      "Properties" : {
        "NetworkAclId" : { "Ref" : "PublicNetworkAcl" },
        "RuleNumber" : "102",
        "Protocol" : "6",
        "RuleAction" : "allow",
        "Egress" : "false",
        "CidrBlock" : { "Ref" : "SSHLocation" },
        "PortRange" : { "From" : "22", "To" : "22" }
      }
    },

    "OutboundPublicNetworkAclEntry" : {
      "Type" : "AWS::EC2::NetworkAclEntry",
      "Properties" : {
        "NetworkAclId" : { "Ref" : "PublicNetworkAcl" },
        "RuleNumber" : "100",
        "Protocol" : "6",
        "RuleAction" : "allow",
        "Egress" : "true",
        "CidrBlock" : "0.0.0.0/0",
        "PortRange" : { "From" : "0", "To" : "65535" }
      }
    },

    "PublicSubnetNetworkAclAssociationA" : {
      "Type" : "AWS::EC2::SubnetNetworkAclAssociation",
      "Properties" : {
        "SubnetId" : { "Ref" : "PublicSubnetA" },
        "NetworkAclId" : { "Ref" : "PublicNetworkAcl" }
      }
    },

    "PublicSubnetNetworkAclAssociationB" : {
      "Type" : "AWS::EC2::SubnetNetworkAclAssociation",
      "Properties" : {
        "SubnetId" : { "Ref" : "PublicSubnetB" },
        "NetworkAclId" : { "Ref" : "PublicNetworkAcl" }
      }
    },

    "PrivateSubnetA" : {
      "Type" : "AWS::EC2::Subnet",
      "Properties" : {
        "AvailabilityZone" : { "Fn::Select" : [ "2", { "Fn::GetAZs" : "" } ] },
        "CidrBlock" : { "Fn::FindInMap" : [ "SubnetConfig", "PrivateA", "CIDR" ]},
        "VpcId" : { "Ref" : "VPC" },
        "Tags" : [
          { "Key" : "Application", "Value" : { "Ref" : "AWS::StackId"} },
          { "Key" : "Network", "Value" : "Private" }
        ]
      }
    },

    "PrivateSubnetB" : {
      "Type" : "AWS::EC2::Subnet",
      "Properties" : {
        "AvailabilityZone" : { "Fn::Select" : [ "3", { "Fn::GetAZs" : "" } ] },
        "CidrBlock" : { "Fn::FindInMap" : [ "SubnetConfig", "PrivateB", "CIDR" ]},
        "VpcId" : { "Ref" : "VPC" },
        "Tags" : [
          { "Key" : "Application", "Value" : { "Ref" : "AWS::StackId"} },
          { "Key" : "Network", "Value" : "Private" }
        ]
      }
    },

    "PrivateRouteTable" : {
      "Type" : "AWS::EC2::RouteTable",
      "Properties" : {
        "VpcId" : { "Ref" : "VPC" },
        "Tags" : [
          { "Key" : "Application", "Value" : { "Ref" : "AWS::StackId"} },
          { "Key" : "Network", "Value" : "Private" }
        ]
      }
    },

    "PrivateSubnetRouteTableAssociationA" : {
      "Type" : "AWS::EC2::SubnetRouteTableAssociation",
      "Properties" : {
        "SubnetId" : { "Ref" : "PrivateSubnetA" },
        "RouteTableId" : { "Ref" : "PrivateRouteTable" }
      }
    },

    "PrivateSubnetRouteTableAssociationB" : {
      "Type" : "AWS::EC2::SubnetRouteTableAssociation",
      "Properties" : {
        "SubnetId" : { "Ref" : "PrivateSubnetB" },
        "RouteTableId" : { "Ref" : "PrivateRouteTable" }
      }
    },

    "PrivateNetworkAcl" : {
      "Type" : "AWS::EC2::NetworkAcl",
      "Properties" : {
        "VpcId" : { "Ref" : "VPC" },
        "Tags" : [
          { "Key" : "Application", "Value" : { "Ref" : "AWS::StackId"} },
          { "Key" : "Network", "Value" : "Private" }
        ]
      }
    },

    "InboundPrivateNetworkAclEntry" : {
      "Type" : "AWS::EC2::NetworkAclEntry",
      "Properties" : {
        "NetworkAclId" : { "Ref" : "PrivateNetworkAcl" },
        "RuleNumber" : "100",
        "Protocol" : "6",
        "RuleAction" : "allow",
        "Egress" : "false",
        "CidrBlock" : "0.0.0.0/0",
        "PortRange" : { "From" : "0", "To" : "65535" }
      }
    },

    "OutBoundPrivateNetworkAclEntry" : {
      "Type" : "AWS::EC2::NetworkAclEntry",
      "Properties" : {
        "NetworkAclId" : { "Ref" : "PrivateNetworkAcl" },
        "RuleNumber" : "100",
        "Protocol" : "6",
        "RuleAction" : "allow",
        "Egress" : "true",
        "CidrBlock" : "0.0.0.0/0",
        "PortRange" : { "From" : "0", "To" : "65535" }
      }
    },

    "PrivateSubnetNetworkAclAssociationA" : {
      "Type" : "AWS::EC2::SubnetNetworkAclAssociation",
      "Properties" : {
        "SubnetId" : { "Ref" : "PrivateSubnetA" },
        "NetworkAclId" : { "Ref" : "PrivateNetworkAcl" }
      }
    },

    "PrivateSubnetNetworkAclAssociationB" : {
      "Type" : "AWS::EC2::SubnetNetworkAclAssociation",
      "Properties" : {
        "SubnetId" : { "Ref" : "PrivateSubnetB" },
        "NetworkAclId" : { "Ref" : "PrivateNetworkAcl" }
      }
    },

    "PublicElasticLoadBalancer" : {
      "Type" : "AWS::ElasticLoadBalancing::LoadBalancer",
      "Properties" : {
        "CrossZone" : "true",
        "SecurityGroups" : [ { "Ref" : "PublicLoadBalancerSecurityGroup" } ],
        "Subnets" : [
          { "Ref" : "PublicSubnetA" },
          { "Ref" : "PublicSubnetB" }
        ],
        "LBCookieStickinessPolicy" : [ {
          "PolicyName" : "CookieBasedPolicy",
          "CookieExpirationPeriod" : "35"
        } ],
        "Listeners" : [ {
          "LoadBalancerPort" : "80",
          "InstancePort" : "80",
          "Protocol" : "HTTP",
          "PolicyNames" : [ "CookieBasedPolicy" ]
        } ],
        "HealthCheck" : {
          "Target" : "HTTP:80/",
          "HealthyThreshold" : "3",
          "UnhealthyThreshold" : "5",
          "Interval" : "30",
          "Timeout" : "15"
        }
      }
    },

    "PublicLoadBalancerSecurityGroup" : {
      "Type" : "AWS::EC2::SecurityGroup",
      "Properties" : {
        "GroupDescription" : "Public ELB Security Group with HTTP access on port 80 from the internet",
        "VpcId" : { "Ref" : "VPC" },
        "SecurityGroupIngress" : [ { "IpProtocol" : "tcp", "FromPort" : "80", "ToPort" : "80", "CidrIp" : "0.0.0.0/0"} ],
        "SecurityGroupEgress" : [ { "IpProtocol" : "tcp", "FromPort" : "80", "ToPort" : "80", "CidrIp" : "0.0.0.0/0"} ]
      }
    },

    "NotificationTopic": {
      "Type": "AWS::SNS::Topic",
      "Properties": {
        "Subscription": [{
          "Endpoint": { "Ref": "AdministratorEmail" },
          "Protocol": "email"
        }]
      }
    },

    "MyBBWebServerAutoscalingGroup" : {
      "Type" : "AWS::AutoScaling::AutoScalingGroup",
      "Properties" : {
        "AvailabilityZones" : [
          { "Fn::Select" : [ "2", { "Fn::GetAZs" : "" } ] },
          { "Fn::Select" : [ "3", { "Fn::GetAZs" : "" } ] }
        ],
        "VPCZoneIdentifier" : [
          { "Ref" : "PublicSubnetA" },
          { "Ref" : "PublicSubnetB" }
        ],
        "LaunchConfigurationName" : { "Ref" : "MyBBWebServerLaunchConfig" },
        "MinSize" : "1",
        "MaxSize" : "10",
        "DesiredCapacity" : { "Ref" : "WebServerCount" },
        "LoadBalancerNames" : [ { "Ref" : "PublicElasticLoadBalancer" } ],
        "NotificationConfigurations" : [{
          "TopicARN" : { "Ref" : "NotificationTopic" },
          "NotificationTypes" : [
            "autoscaling:EC2_INSTANCE_LAUNCH",
            "autoscaling:EC2_INSTANCE_LAUNCH_ERROR",
            "autoscaling:EC2_INSTANCE_TERMINATE",
            "autoscaling:EC2_INSTANCE_TERMINATE_ERROR"
          ]
        }],
        "Tags" : [ {
          "Key" : "Network",
          "Value" : "Public",
          "PropagateAtLaunch" : "true"
        } ]
      },
      "CreationPolicy" : {
        "ResourceSignal" : {
          "Timeout" : "PT10M",
          "Count"   : { "Ref" : "WebServerCount" }
        }
      },
      "UpdatePolicy": {
        "AutoScalingRollingUpdate": {
          "MinInstancesInService": "1",
          "MaxBatchSize": "1",
          "PauseTime" : "PT15M",
          "WaitOnResourceSignals": "true"
        }
      },
      "DependsOn" : [
        "PublicElasticLoadBalancer",
        "PublicRoute"
      ]
    },

    "WebServerScaleUpPolicy" : {
      "Type" : "AWS::AutoScaling::ScalingPolicy",
      "Properties" : {
        "AdjustmentType" : "ChangeInCapacity",
        "AutoScalingGroupName" : { "Ref" : "MyBBWebServerAutoscalingGroup" },
        "Cooldown" : "60",
        "ScalingAdjustment" : "1"
      }
    },

    "WebServerScaleDownPolicy" : {
      "Type" : "AWS::AutoScaling::ScalingPolicy",
      "Properties" : {
        "AdjustmentType" : "ChangeInCapacity",
        "AutoScalingGroupName" : { "Ref" : "MyBBWebServerAutoscalingGroup" },
        "Cooldown" : "60",
        "ScalingAdjustment" : "-1"
      }
    },

    "DiskReadIOPSAlarm": {
      "Type": "AWS::CloudWatch::Alarm",
      "Properties": {
        "AlarmDescription": "Webservers Network Out",
        "Namespace": "AWS/EC2",
        "MetricName": "NetworkOut",
        "Dimensions": [
          {
            "Name": "AutoScalingGroupName",
            "Value": { "Ref": "MyBBWebServerAutoscalingGroup" }
          }
        ],
        "Statistic": "Average",
        "Period": "600",
        "EvaluationPeriods": "1",
        "Threshold": "1000000000",
        "ComparisonOperator": "GreaterThanThreshold",
        "AlarmActions": [{
          "Ref": "NotificationTopic"
        }],
        "InsufficientDataActions": [{
          "Ref": "NotificationTopic"
        }]
      }
    },

    "RDSDiskFreeStorageSpaceAlarm": {
      "Type": "AWS::CloudWatch::Alarm",
      "Properties": {
        "AlarmDescription": "RDS Disk Free Storage Space",
        "Namespace": "AWS/RDS",
        "MetricName": "FreeStorageSpace",
        "Dimensions": [
          {
            "Name": "DBInstanceIdentifier",
            "Value": { "Ref": "MySQLDatabase" }
          }
        ],
        "Statistic": "Average",
        "Period": "300",
        "EvaluationPeriods": "1",
        "Threshold": "500000000",
        "ComparisonOperator": "LessThanThreshold",
        "AlarmActions": [{
          "Ref": "NotificationTopic"
        }],
        "InsufficientDataActions": [{
          "Ref": "NotificationTopic"
        }]
      }
    },

    "CPUAlarmHigh": {
     "Type": "AWS::CloudWatch::Alarm",
     "Properties": {
        "AlarmDescription": "Scale-up if CPU > 80% for 5 minutes",
        "MetricName": "CPUUtilization",
        "Namespace": "AWS/EC2",
        "Statistic": "Average",
        "Period": "300",
        "EvaluationPeriods": "1",
        "Threshold": "80",
        "AlarmActions": [ { "Ref": "WebServerScaleUpPolicy" } ],
        "Dimensions": [
          {
            "Name": "AutoScalingGroupName",
            "Value": { "Ref": "MyBBWebServerAutoscalingGroup" }
          }
        ],
        "ComparisonOperator": "GreaterThanThreshold"
      }
    },

    "CPUAlarmLow": {
     "Type": "AWS::CloudWatch::Alarm",
     "Properties": {
        "AlarmDescription": "Scale-down if CPU < 40% for 10 minutes",
        "MetricName": "CPUUtilization",
        "Namespace": "AWS/EC2",
        "Statistic": "Average",
        "Period": "300",
        "EvaluationPeriods": "2",
        "Threshold": "40",
        "AlarmActions": [ { "Ref": "WebServerScaleDownPolicy" } ],
        "Dimensions": [
          {
            "Name": "AutoScalingGroupName",
            "Value": { "Ref": "MyBBWebServerAutoscalingGroup" }
          }
        ],
        "ComparisonOperator": "LessThanThreshold"
      }
    },

    "MyBBWebServerLaunchConfig"  : {
      "Type" : "AWS::AutoScaling::LaunchConfiguration",
      "Metadata" : {
        "AWS::CloudFormation::Init" : {
          "config" : {
            "packages" : {
              "yum" : {
                "httpd"            : [],
                "php"              : [],
                "php-mysql"        : [],
                "php-gd"           : [],
                "mysql"            : []
              }
            },

            "sources" : {
              "/tmp/mybb-aws-deployment" : "https://bitbucket.org/vismivi/mybb/get/c40ac7d71ff1.zip"
            },

            "files" : {
              "/etc/cfn/cfn-hup.conf" : {
                "content" : { "Fn::Join" : ["", [
                  "[main]\n",
                  "stack=", { "Ref" : "AWS::StackId" }, "\n",
                  "region=", { "Ref" : "AWS::Region" }, "\n"
                ]]},
                "mode"    : "000400",
                "owner"   : "root",
                "group"   : "root"
              },

              "/etc/cfn/hooks.d/cfn-auto-reloader.conf" : {
                "content": { "Fn::Join" : ["", [
                  "[cfn-auto-reloader-hook]\n",
                  "triggers=post.update\n",
                  "path=Resources.MyBBWebServerLaunchConfig.Metadata.AWS::CloudFormation::Init\n",
                  "action=/opt/aws/bin/cfn-init -v ",
                  "         --stack ", { "Ref" : "AWS::StackName" },
                  "         --resource MyBBWebServerLaunchConfig ",
                  "         --region ", { "Ref" : "AWS::Region" }, "\n",
                  "runas=root\n"
                ]]}
              }
            },

            "commands": {
              "install": {
                "command": "/bin/bash ./code/deploy-mybb.sh",
                "cwd": "/tmp/mybb-aws-deployment",
                "env": {
                  "CNF_PARAM_DBNAME": { "Ref": "DBName" },
                  "CNF_PARAM_DBUSERNAME": { "Ref": "DBUser" },
                  "CNF_PARAM_DBPASSWORD": { "Ref": "DBPassword" },
                  "CNF_PARAM_DBHOSTNAME": { "Fn::GetAtt": [ "MySQLDatabase", "Endpoint.Address" ] },
                  "CNF_PARAM_DBPORT": { "Ref": "DBPort" },                  
                  "CNF_PARAM_DOMAINNAME": { "Fn::GetAtt": [ "PublicElasticLoadBalancer", "DNSName" ] },
                  "CNF_PARAM_ADMINEMAIL": { "Ref": "AdministratorEmail" }
                }
              }
            },

            "services" : {
              "sysvinit" : {
                "httpd" : { "enabled" : "true", "ensureRunning" : "true"},
                "cfn-hup" : { "enabled" : "true", "ensureRunning" : "true",
                              "files" : ["/etc/cfn/cfn-hup.conf", "/etc/cfn/hooks.d/cfn-auto-reloader.conf"]}
              }
            }
          }
        }
      },

      "Properties" : {
        "ImageId"        : { "Fn::FindInMap" : [ "AWSRegionArch2AMI", { "Ref" : "AWS::Region" }, { "Fn::FindInMap" : [ "AWSInstanceType2Arch", { "Ref" : "WebServerInstanceType" }, "Arch" ] } ] },
        "SecurityGroups" : [ { "Ref" : "WebServerSecurityGroup" } ],
        "InstanceType"   : { "Ref" : "WebServerInstanceType" },
        "KeyName"        : { "Ref" : "KeyName" },
        "AssociatePublicIpAddress" : "true",
        "UserData"       : { "Fn::Base64" : { "Fn::Join" : ["", [
          "#!/bin/bash -xe\n",
          "yum update -y aws-cfn-bootstrap\n",

          "# Install the sample application\n",
          "/opt/aws/bin/cfn-init -v ",
          "    --stack ", { "Ref" : "AWS::StackId" },
          "    --resource MyBBWebServerLaunchConfig ",
          "    --region ", { "Ref" : "AWS::Region" }, "\n",

          "# Signal copletion\n",
          "/opt/aws/bin/cfn-signal -e $? ",
          "    --stack ", { "Ref" : "AWS::StackId" },
          "    --resource MyBBWebServerAutoscalingGroup ",
          "    --region ", { "Ref" : "AWS::Region" }, "\n"
        ]]}}
      }
    },

    "WebServerSecurityGroup" : {
      "Type" : "AWS::EC2::SecurityGroup",
      "Properties" : {
        "GroupDescription" : "Allow access from load balancer and bastion as well as outbound HTTP and HTTPS traffic",
        "VpcId" : { "Ref" : "VPC" },
        "SecurityGroupIngress" : [
          { "IpProtocol" : "tcp", "FromPort" : "80", "ToPort" : "80", "SourceSecurityGroupId" : { "Ref" : "PublicLoadBalancerSecurityGroup" } } ,
          { "IpProtocol" : "tcp", "FromPort" : "22", "ToPort" : "22", "CidrIp" : { "Ref" : "SSHLocation" } } ]
      }
    },

    "DBSubnetGroup" : {
      "Type" : "AWS::RDS::DBSubnetGroup",
      "Properties" : {
        "DBSubnetGroupDescription" : "Database subnet group.",
        "SubnetIds" : [
          { "Ref" : "PrivateSubnetA"},
          { "Ref" : "PrivateSubnetB"}
        ]
      },
      "DependsOn" : "VPC"
    },

    "DBEC2SecurityGroup": {
      "Type": "AWS::EC2::SecurityGroup",
      "Properties" : {
        "GroupDescription": "Open Database for EC2 Access",
        "SecurityGroupIngress" : [{
          "IpProtocol" : "tcp",
          "FromPort" : { "Ref": "DBPort" },
          "ToPort" : { "Ref": "DBPort" },
          "SourceSecurityGroupId" : { "Ref" : "WebServerSecurityGroup" }
        }],
        "VpcId" : { "Ref" : "VPC" }
      },
      "DependsOn" : [
        "VPC",
        "WebServerSecurityGroup"
      ]
    },

    "MySQLDatabase": {
      "Type": "AWS::RDS::DBInstance",
      "Properties": {
        "AllocatedStorage": { "Ref" : "DBAllocatedStorage" },
        "DBInstanceClass": { "Ref" : "DBInstanceClass" },
        "DBName" : { "Ref": "DBName" },
        "DBSubnetGroupName" : { "Ref" : "DBSubnetGroup" },
        "Engine" : "MySQL",
        "MultiAZ" : { "Ref": "MultiAZ" },
        "MasterUsername": { "Ref": "DBUser" },
        "MasterUserPassword": { "Ref" : "DBPassword" },
        "VPCSecurityGroups" : [ { "Fn::GetAtt": [ "DBEC2SecurityGroup", "GroupId" ] } ]
      },
      "DependsOn" : [
        "PrivateSubnetA",
        "PrivateSubnetB",
        "DBSubnetGroup",
        "DBEC2SecurityGroup"
      ]
    }
  },

  "Outputs" : {
    "WebSite" : {
      "Description" : "URL of the website",
      "Value" :  { "Fn::Join" : [ "", [ "http://", { "Fn::GetAtt" : [ "PublicElasticLoadBalancer", "DNSName" ]}]]}
    },
    "Database" : {
      "Description" : "URL of the database",
      "Value" :  { "Fn::Join" : [ "", [ "http://", { "Fn::GetAtt": [ "MySQLDatabase", "Endpoint.Address" ]}]]}
    }
  }
}
